%YAML 1.1
%TAG !u! tag:unity3d.com,2011:
--- !u!319 &31900000
AvatarMask:
  m_ObjectHideFlags: 0
  m_CorrespondingSourceObject: {fileID: 0}
  m_PrefabInstance: {fileID: 0}
  m_PrefabAsset: {fileID: 0}
  m_Name: AM_Character_Top
  m_Mask: 01000000010000000100000001000000010000000100000001000000010000000100000001000000010000000100000001000000
  m_Elements:
  - m_Path: 
    m_Weight: 1
  - m_Path: Armature
    m_Weight: 0
  - m_Path: Armature/Bone.008
    m_Weight: 0
  - m_Path: Armature/Bone.008/Bone.008_end
    m_Weight: 0
  - m_Path: Armature/Bone.009
    m_Weight: 0
  - m_Path: Armature/Bone.009/Bone.009_end
    m_Weight: 0
  - m_Path: Armature/Bone.010
    m_Weight: 1
  - m_Path: Armature/Bone.010/Bone.010_end
    m_Weight: 1
  - m_Path: Armature/Bone.011
    m_Weight: 1
  - m_Path: Armature/Bone.011/Bone.011_end
    m_Weight: 1
  - m_Path: Armature/Bone.012
    m_Weight: 0
  - m_Path: Armature/Bone.012/Bone.004
    m_Weight: 0
  - m_Path: Armature/Bone.012/Bone.004/Bone.005
    m_Weight: 0
  - m_Path: Armature/Bone.012/Bone.004/Bone.005/Bone.005_end
    m_Weight: 0
  - m_Path: Armature/Bone.012/Bone.006
    m_Weight: 0
  - m_Path: Armature/Bone.012/Bone.006/Bone.007
    m_Weight: 0
  - m_Path: Armature/Bone.012/Bone.006/Bone.007/Bone.007_end
    m_Weight: 0
  - m_Path: Armature/Bone.012/Bone.013
    m_Weight: 0
  - m_Path: Armature/Bone.012/Bone.013/Bone.002
    m_Weight: 0
  - m_Path: Armature/Bone.012/Bone.013/Bone.002/Bone.003
    m_Weight: 0
  - m_Path: Armature/Bone.012/Bone.013/Bone.002/Bone.003/Bone.003_end
    m_Weight: 0
  - m_Path: Armature/Bone.012/Bone.014
    m_Weight: 0
  - m_Path: Armature/Bone.012/Bone.014/Bone
    m_Weight: 0
  - m_Path: Armature/Bone.012/Bone.014/Bone/Bone.001
    m_Weight: 0
  - m_Path: Armature/Bone.012/Bone.014/Bone/Bone.001/Bone.001_end
    m_Weight: 0
  - m_Path: Cube
    m_Weight: 1
  - m_Path: Cube.001
    m_Weight: 1
  - m_Path: Cylinder
    m_Weight: 0
  - m_Path: Cylinder.001
    m_Weight: 1
  - m_Path: Icosphere
    m_Weight: 1
  - m_Path: Plane.001
    m_Weight: 1
  - m_Path: Sphere
    m_Weight: 1
  - m_Path: Sphere.001
    m_Weight: 0
  - m_Path: Sphere.002
    m_Weight: 0
  - m_Path: Sphere.003
    m_Weight: 1
  - m_Path: Sphere.004
    m_Weight: 1
  - m_Path: Sphere.005
    m_Weight: 1
  - m_Path: Torus
    m_Weight: 1
