%YAML 1.1
%TAG !u! tag:unity3d.com,2011:
--- !u!1045 &1
EditorBuildSettings:
  m_ObjectHideFlags: 0
  serializedVersion: 2
  m_Scenes:
  - enabled: 1
    path: Assets/Scenes/MainMenu3D.unity
    guid: 1808eb0e054c80242bd9ba4e252549b5
  - enabled: 1
    path: Assets/Scenes/MainGame.unity
    guid: e00e3276297981a48827958200666f58
  - enabled: 0
    path: Assets/Scenes/Tests/TestLevel.unity
    guid: d969f4051653c214497595a2bae8714e
  m_configObjects: {}
